{"status":true,"code":200,"toast":0,"window":0,"message":"\u8bf7\u6c42\u6210\u529f","data":{"current_page":1,"data":[{"user_id":9408,"nickname":"ss","avatar":"https:\/\/image.imjihua.com\/L6NVw1598861253876.jpg","comment_id":184,"comment_time":"2020-09-09 16:53","content":"\u65b9\u6cd5","reply_num":0,"zan_num":0,"post_id":92,"reply_ids":"","is_zan":0,"is_del":0,"is_report":1,"user_level":0,"reply_list":[]},{"user_id":318,"nickname":"\u4f60\u4e8c\u5927\u7237","avatar":"https:\/\/image.2048.com\/ElnlowcpgAkkZ7TmmwkbrB94ChzQgIIl1587638078","comment_id":169,"comment_time":"2020-09-04 17:43","content":"\u5efa\u8bbe\u5f88\u591a\u8bdd\u53ef\u60f3\u4f60","reply_num":0,"zan_num":0,"post_id":92,"reply_ids":"","is_zan":0,"is_del":0,"is_report":1,"user_level":6,"reply_list":[]},{"user_id":318,"nickname":"\u4f60\u4e8c\u5927\u7237","avatar":"https:\/\/image.2048.com\/ElnlowcpgAkkZ7TmmwkbrB94ChzQgIIl1587638078","comment_id":168,"comment_time":"2020-09-04 17:41","content":"\u5feb\u5230\u5bb6\u5feb\u7537\u7684\u5973\u5973\u6b3e\u5f00\u5fc3\u5c31\u5f00\u5b66\u5462\u770b\u5230\u90a3\u9ebb\u70e6\u4f60\u4f60\u60f3\u4f60\u5feb\u70b9\u89e3\u653e\u79d1\u5b66\u5bb6","reply_num":2,"zan_num":0,"post_id":92,"reply_ids":"170,183","is_zan":0,"is_del":0,"is_report":1,"user_level":6,"reply_list":[{"user_id":318,"nickname":"\u4f60\u4e8c\u5927\u7237","avatar":"https:\/\/image.2048.com\/ElnlowcpgAkkZ7TmmwkbrB94ChzQgIIl1587638078","reply_id":170,"reply_time":"2020-09-04 17:45:08","content":"\u5475\u5475\u54d2\u4f60\u591a\u4e45","post_id":92,"to_uid":0,"to_uname":"","pid":168,"is_del":0,"is_report":1},{"user_id":9408,"nickname":"ss","avatar":"https:\/\/image.imjihua.com\/L6NVw1598861253876.jpg","reply_id":183,"reply_time":"2020-09-09 15:54:51","content":"\u4fe1\u606f","post_id":92,"to_uid":0,"to_uname":"","pid":168,"is_del":0,"is_report":1}]},{"user_id":5,"nickname":"\u732b\u54aa","avatar":"https:\/\/image.2048.com\/hmn07x96KV6CXzuxza8A2k0JSI7rJMgi1574160235","comment_id":167,"comment_time":"2020-09-03 16:38","content":"\u54c8\u54c8\u54c7","reply_num":0,"zan_num":0,"post_id":92,"reply_ids":"","is_zan":0,"is_del":0,"is_report":1,"user_level":4,"reply_list":[]},{"user_id":9420,"nickname":"\u5475\u5475\uff0c","avatar":"https:\/\/image.imjihua.com\/default_2048.png","comment_id":159,"comment_time":"2020-09-02 14:42","content":"z","reply_num":1,"zan_num":0,"post_id":92,"reply_ids":"160","is_zan":0,"is_del":0,"is_report":1,"user_level":0,"reply_list":[{"user_id":9420,"nickname":"\u5475\u5475\uff0c","avatar":"https:\/\/image.imjihua.com\/default_2048.png","reply_id":160,"reply_time":"2020-09-02 14:44:59","content":"d","post_id":92,"to_uid":0,"to_uname":"","pid":159,"is_del":0,"is_report":1}]},{"user_id":9420,"nickname":"\u5475\u5475\uff0c","avatar":"https:\/\/image.imjihua.com\/default_2048.png","comment_id":158,"comment_time":"2020-09-01 17:09","content":". x","reply_num":0,"zan_num":0,"post_id":92,"reply_ids":"","is_zan":0,"is_del":0,"is_report":1,"user_level":0,"reply_list":[]},{"user_id":9420,"nickname":"\u5475\u5475\uff0c","avatar":"https:\/\/image.imjihua.com\/default_2048.png","comment_id":154,"comment_time":"2020-09-01 17:08","content":"s","reply_num":0,"zan_num":0,"post_id":92,"reply_ids":"","is_zan":0,"is_del":0,"is_report":1,"user_level":0,"reply_list":[]},{"user_id":9407,"nickname":"sjs","avatar":"https:\/\/image.imjihua.com\/default_2048.png","comment_id":147,"comment_time":"2020-08-31 16:43","content":"ww","reply_num":0,"zan_num":0,"post_id":92,"reply_ids":"","is_zan":0,"is_del":0,"is_report":1,"user_level":0,"reply_list":[]},{"user_id":5,"nickname":"\u732b\u54aa","avatar":"https:\/\/image.2048.com\/hmn07x96KV6CXzuxza8A2k0JSI7rJMgi1574160235","comment_id":111,"comment_time":"2020-08-24 17:11","content":"\u54c7\u54c8\u54c8","reply_num":9,"zan_num":2,"post_id":92,"reply_ids":"112,113","is_zan":0,"is_del":0,"is_report":1,"user_level":4,"reply_list":[{"user_id":122,"nickname":"\u7f8e\u597d\u65f6\u5149-1iz","avatar":"https:\/\/image.2048.com\/UNlCO2jljCLPUmAgGgowxxTdANKfR2nR1577785884","reply_id":112,"reply_time":"2020-08-24 17:12:07","content":"oooo","post_id":92,"to_uid":0,"to_uname":"","pid":111,"is_del":0,"is_report":1},{"user_id":5,"nickname":"\u732b\u54aa","avatar":"https:\/\/image.2048.com\/hmn07x96KV6CXzuxza8A2k0JSI7rJMgi1574160235","reply_id":113,"reply_time":"2020-08-24 17:12:37","content":"no no no","post_id":92,"to_uid":122,"to_uname":"\u7f8e\u597d\u65f6\u5149-1iz","pid":111,"is_del":0,"is_report":1}]},{"user_id":122,"nickname":"\u7f8e\u597d\u65f6\u5149-1iz","avatar":"https:\/\/image.2048.com\/UNlCO2jljCLPUmAgGgowxxTdANKfR2nR1577785884","comment_id":109,"comment_time":"2020-08-24 17:10","content":"jjjj","reply_num":3,"zan_num":2,"post_id":92,"reply_ids":"142,143","is_zan":0,"is_del":0,"is_report":1,"user_level":4,"reply_list":[{"user_id":9419,"nickname":"\u5475\u5475","avatar":"https:\/\/image.imjihua.com\/default_2048.png","reply_id":142,"reply_time":"2020-08-28 17:19:30","content":"\u5c3d\u5feb","post_id":92,"to_uid":0,"to_uname":"","pid":109,"is_del":0,"is_report":1},{"user_id":9420,"nickname":"\u5475\u5475\uff0c","avatar":"https:\/\/image.imjihua.com\/default_2048.png","reply_id":143,"reply_time":"2020-08-28 17:36:41","content":"\u67e5\u8be2\u6d41\u91cf","post_id":92,"to_uid":0,"to_uname":"","pid":109,"is_del":0,"is_report":1}]}],"first_page_url":"http:\/\/api.dev.ssbf.imjihua.com\/api\/get_comment_list?page=1","from":1,"last_page":5,"last_page_url":"http:\/\/api.dev.ssbf.imjihua.com\/api\/get_comment_list?page=5","next_page_url":"http:\/\/api.dev.ssbf.imjihua.com\/api\/get_comment_list?page=2","path":"http:\/\/api.dev.ssbf.imjihua.com\/api\/get_comment_list","per_page":10,"prev_page_url":null,"to":10,"total":42}}