{"status":true,"code":200,"toast":0,"window":0,"message":"\u8bf7\u6c42\u6210\u529f","data":{"current_page":1,"first_page_url":"http:\/\/api.dev.ssbf.imjihua.com\/api\/square_post?page=1","from":1,"last_page":312,"last_page_url":"http:\/\/api.dev.ssbf.imjihua.com\/api\/square_post?page=312","next_page_url":"http:\/\/api.dev.ssbf.imjihua.com\/api\/square_post?page=2","path":"http:\/\/api.dev.ssbf.imjihua.com\/api\/square_post","per_page":15,"prev_page_url":null,"to":15,"total":4677,"post_list":[{"user_id":3534,"nickname":"\u8fdc\u65b9\u548c\u4f60","avatar":"https:\/\/image.2048.com\/rbimgs\/39a382abc25f42bf8a0bd652aac17bd60.jpg","post_id":5031,"post_time":"1\u5c0f\u65f6\u524d","content":"\u5229\u5179\u8054\u88ab\u82f1\u8d85\u5b98\u65b9\u7f5a\u6b3e\uff01\u539f\u56e0\u662f\u5e86\u795d\u8fdd\u89c4\u4f7f\u7528\u70df\u82b1\uff01","media":{"media_type":"image","media_list":[{"original":"https:\/\/image.imjihua.com\/spider\/community\/sportspress_6538\/db042ad8461c8397c9bd65116ff7757f","scale":"","thumbnail":"https:\/\/image.imjihua.com\/spider\/community\/sportspress_6538\/db042ad8461c8397c9bd65116ff7757f?imageView2\/2\/w\/300\/format\/gif"},{"original":"https:\/\/image.imjihua.com\/spider\/community\/sportspress_6538\/20e174d18d60670c84c030e19eb1692a","scale":"","thumbnail":"https:\/\/image.imjihua.com\/spider\/community\/sportspress_6538\/20e174d18d60670c84c030e19eb1692a?imageView2\/2\/w\/300\/format\/gif"},{"original":"https:\/\/image.imjihua.com\/spider\/community\/sportspress_6538\/32a43a0374c1dcb5fa9fbbd4577d1a2c","scale":"","thumbnail":"https:\/\/image.imjihua.com\/spider\/community\/sportspress_6538\/32a43a0374c1dcb5fa9fbbd4577d1a2c?imageView2\/2\/w\/300\/format\/gif"},{"original":"https:\/\/image.imjihua.com\/spider\/community\/sportspress_6538\/72d4927a8151941d496b5eb56c0d3da4","scale":"","thumbnail":"https:\/\/image.imjihua.com\/spider\/community\/sportspress_6538\/72d4927a8151941d496b5eb56c0d3da4?imageView2\/2\/w\/300\/format\/gif"}]},"pc_num":0,"zan_num":23,"is_top":0,"is_zan":0,"is_del":0,"is_report":1,"user_level":1},{"user_id":4650,"nickname":"\u5fc3\u4e0a\u4eba","avatar":"https:\/\/image.2048.com\/rbimgs\/4c4191b2dbe04ca8835c51bb5b559a490.jpg","post_id":5032,"post_time":"1\u5c0f\u65f6\u524d","content":"\u6cd5\u7532\u8054\u8d5b\u7b2c\u4e8c\u8f6e\u6717\u65af1\u6bd40\u51fb\u8d25\u5df4\u9ece\u5723\u65e5\u8033\u66fc!","media":{"media_type":"image","media_list":[{"original":"https:\/\/image.imjihua.com\/spider\/community\/sportspress_6537\/e6c30f0ae4b8b174ee232833c39659a1","scale":"","thumbnail":"https:\/\/image.imjihua.com\/spider\/community\/sportspress_6537\/e6c30f0ae4b8b174ee232833c39659a1?imageView2\/2\/w\/300\/format\/gif"},{"original":"https:\/\/image.imjihua.com\/spider\/community\/sportspress_6537\/64e2b26a5957b4a76882d68344c699c5","scale":"","thumbnail":"https:\/\/image.imjihua.com\/spider\/community\/sportspress_6537\/64e2b26a5957b4a76882d68344c699c5?imageView2\/2\/w\/300\/format\/gif"},{"original":"https:\/\/image.imjihua.com\/spider\/community\/sportspress_6537\/b837e532cbbe542e61d4a3b6747502dc","scale":"","thumbnail":"https:\/\/image.imjihua.com\/spider\/community\/sportspress_6537\/b837e532cbbe542e61d4a3b6747502dc?imageView2\/2\/w\/300\/format\/gif"},{"original":"https:\/\/image.imjihua.com\/spider\/community\/sportspress_6537\/4eff1e93c0260b43a3fb80e91e69e851","scale":"","thumbnail":"https:\/\/image.imjihua.com\/spider\/community\/sportspress_6537\/4eff1e93c0260b43a3fb80e91e69e851?imageView2\/2\/w\/300\/format\/gif"}]},"pc_num":0,"zan_num":47,"is_top":0,"is_zan":0,"is_del":0,"is_report":1,"user_level":0},{"user_id":1872,"nickname":"\u5976\u5305","avatar":"https:\/\/image.2048.com\/rbimgs\/1e66724dc2c249a69f7e068a66cf35ef0.jpg","post_id":5030,"post_time":"1\u5c0f\u65f6\u524d","content":"\u56fd\u9645\u7c73\u5170\u5907\u6218\u65b0\u8d5b\u5b63\uff01\u5389\u5175\u79e3\u9a6c\u53ea\u4e3a\u4eca\u671d\uff01","media":{"media_type":"image","media_list":[{"original":"https:\/\/image.imjihua.com\/spider\/community\/sportspress_6536\/10cb722e2340c706668fcacb0f4f66bd","scale":"","thumbnail":"https:\/\/image.imjihua.com\/spider\/community\/sportspress_6536\/10cb722e2340c706668fcacb0f4f66bd?imageView2\/2\/w\/300\/format\/gif"},{"original":"https:\/\/image.imjihua.com\/spider\/community\/sportspress_6536\/eb2cd233b27c55e6dd534a22091da10a","scale":"","thumbnail":"https:\/\/image.imjihua.com\/spider\/community\/sportspress_6536\/eb2cd233b27c55e6dd534a22091da10a?imageView2\/2\/w\/300\/format\/gif"},{"original":"https:\/\/image.imjihua.com\/spider\/community\/sportspress_6536\/e0be6b1cf4458a1bdb5de83e47f2a62d","scale":"","thumbnail":"https:\/\/image.imjihua.com\/spider\/community\/sportspress_6536\/e0be6b1cf4458a1bdb5de83e47f2a62d?imageView2\/2\/w\/300\/format\/gif"}]},"pc_num":0,"zan_num":47,"is_top":0,"is_zan":0,"is_del":0,"is_report":1,"user_level":1},{"user_id":3660,"nickname":"\u770b\u4f60\u8138\u7ea2","avatar":"https:\/\/image.2048.com\/rbimgs\/3beb0c1ee0fb42c1bad020f0222b9d8b0.jpg","post_id":5034,"post_time":"1\u5c0f\u65f6\u524d","content":"\u62c9\u9f50\u5965\u5907\u6218\u65b0\u8d5b\u5b63\uff01\u76ee\u6807\u76f4\u6307\u610f\u7532\u51a0\u519b\uff01","media":{"media_type":"image","media_list":[{"original":"https:\/\/image.imjihua.com\/spider\/community\/sportspress_6535\/991c04973c97a2f12453954e48013213","scale":"","thumbnail":"https:\/\/image.imjihua.com\/spider\/community\/sportspress_6535\/991c04973c97a2f12453954e48013213?imageView2\/2\/w\/300\/format\/gif"},{"original":"https:\/\/image.imjihua.com\/spider\/community\/sportspress_6535\/39ad1a5b3e60d95359256d377742d496","scale":"","thumbnail":"https:\/\/image.imjihua.com\/spider\/community\/sportspress_6535\/39ad1a5b3e60d95359256d377742d496?imageView2\/2\/w\/300\/format\/gif"},{"original":"https:\/\/image.imjihua.com\/spider\/community\/sportspress_6535\/061118004f89198cba41b8d8a5b5c141","scale":"","thumbnail":"https:\/\/image.imjihua.com\/spider\/community\/sportspress_6535\/061118004f89198cba41b8d8a5b5c141?imageView2\/2\/w\/300\/format\/gif"}]},"pc_num":0,"zan_num":16,"is_top":0,"is_zan":0,"is_del":0,"is_report":1,"user_level":0},{"user_id":5370,"nickname":"\u6000\u4e86\u5c0f\u674e\u767d","avatar":"https:\/\/image.2048.com\/rbimgs\/57c836be1610410d9fb123a1f29d464a0.jpg","post_id":5033,"post_time":"1\u5c0f\u65f6\u524d","content":"\u6b27\u51a0\u65b0\u8d5b\u5b63\u5373\u5c06\u5f00\u542f\uff0110\u67082\u65e5\u8fdb\u884c\u5c0f\u7ec4\u8d5b\u62bd\u7b7e\uff01","media":{"media_type":"image","media_list":[{"original":"https:\/\/image.imjihua.com\/spider\/community\/sportspress_6534\/a9ffb720eea58a13c9e55130f21cc984","scale":"","thumbnail":"https:\/\/image.imjihua.com\/spider\/community\/sportspress_6534\/a9ffb720eea58a13c9e55130f21cc984?imageView2\/2\/w\/300\/format\/gif"},{"original":"https:\/\/image.imjihua.com\/spider\/community\/sportspress_6534\/ec864d277d45987024b624dbd97f8e1b","scale":"","thumbnail":"https:\/\/image.imjihua.com\/spider\/community\/sportspress_6534\/ec864d277d45987024b624dbd97f8e1b?imageView2\/2\/w\/300\/format\/gif"},{"original":"https:\/\/image.imjihua.com\/spider\/community\/sportspress_6534\/e4fd465ad08ad32bff1662a785272271","scale":"","thumbnail":"https:\/\/image.imjihua.com\/spider\/community\/sportspress_6534\/e4fd465ad08ad32bff1662a785272271?imageView2\/2\/w\/300\/format\/gif"},{"original":"https:\/\/image.imjihua.com\/spider\/community\/sportspress_6534\/cc3100e6ad1d8060895599bbc2e9d1f1","scale":"","thumbnail":"https:\/\/image.imjihua.com\/spider\/community\/sportspress_6534\/cc3100e6ad1d8060895599bbc2e9d1f1?imageView2\/2\/w\/300\/format\/gif"}]},"pc_num":0,"zan_num":7,"is_top":0,"is_zan":0,"is_del":0,"is_report":1,"user_level":1},{"user_id":1246,"nickname":"\u618e\u6068\u4e16\u754c","avatar":"https:\/\/image.2048.com\/rbimgs\/14ab326dfa64437293a01c3140897fd10.jpg","post_id":5029,"post_time":"2\u5c0f\u65f6\u524d","content":"MLB\u6d1b\u6749\u77f6\u5929\u4f7f6-2\u5fb7\u5dde\u6e38\u9a91\u5175","media":{"media_type":"image","media_list":[{"original":"https:\/\/image.imjihua.com\/spider\/community\/sina_ivhuipp3780525\/e1b65664432bdbaf3091fb5a6f1cfcbd","scale":"","thumbnail":"https:\/\/image.imjihua.com\/spider\/community\/sina_ivhuipp3780525\/e1b65664432bdbaf3091fb5a6f1cfcbd?imageView2\/2\/w\/300\/format\/gif"},{"original":"https:\/\/image.imjihua.com\/spider\/community\/sina_ivhuipp3780525\/d0da8d6f8e983e114212d6bd3074f8b1","scale":"","thumbnail":"https:\/\/image.imjihua.com\/spider\/community\/sina_ivhuipp3780525\/d0da8d6f8e983e114212d6bd3074f8b1?imageView2\/2\/w\/300\/format\/gif"},{"original":"https:\/\/image.imjihua.com\/spider\/community\/sina_ivhuipp3780525\/5cb4979365c85607434d537c2b92c50b","scale":"","thumbnail":"https:\/\/image.imjihua.com\/spider\/community\/sina_ivhuipp3780525\/5cb4979365c85607434d537c2b92c50b?imageView2\/2\/w\/300\/format\/gif"},{"original":"https:\/\/image.imjihua.com\/spider\/community\/sina_ivhuipp3780525\/72f2711f5f1216a7cefb87de8490e961","scale":"","thumbnail":"https:\/\/image.imjihua.com\/spider\/community\/sina_ivhuipp3780525\/72f2711f5f1216a7cefb87de8490e961?imageView2\/2\/w\/300\/format\/gif"},{"original":"https:\/\/image.imjihua.com\/spider\/community\/sina_ivhuipp3780525\/11830181276374fae41dedfa955e2758","scale":"","thumbnail":"https:\/\/image.imjihua.com\/spider\/community\/sina_ivhuipp3780525\/11830181276374fae41dedfa955e2758?imageView2\/2\/w\/300\/format\/gif"}]},"pc_num":0,"zan_num":15,"is_top":0,"is_zan":0,"is_del":0,"is_report":1,"user_level":0},{"user_id":3987,"nickname":"\u82f1\u96c4\u51a2\u7f8e\u4eba\u9aa8","avatar":"https:\/\/image.2048.com\/rbimgs\/412b9fcaee1d4809b959cf7191596b280.jpg","post_id":5021,"post_time":"2\u5c0f\u65f6\u524d","content":"MLB\u6ce2\u58eb\u987f\u7ea2\u889c4-3\u5766\u5e15\u6e7e\u5149\u8292","media":{"media_type":"image","media_list":[{"original":"https:\/\/image.imjihua.com\/spider\/community\/sina_ivhuipp3775478\/14b6ad039208032102220d28b52bd836","scale":"","thumbnail":"https:\/\/image.imjihua.com\/spider\/community\/sina_ivhuipp3775478\/14b6ad039208032102220d28b52bd836?imageView2\/2\/w\/300\/format\/gif"},{"original":"https:\/\/image.imjihua.com\/spider\/community\/sina_ivhuipp3775478\/1bff0bc2587da39044e0a32c5be5cbff","scale":"","thumbnail":"https:\/\/image.imjihua.com\/spider\/community\/sina_ivhuipp3775478\/1bff0bc2587da39044e0a32c5be5cbff?imageView2\/2\/w\/300\/format\/gif"},{"original":"https:\/\/image.imjihua.com\/spider\/community\/sina_ivhuipp3775478\/48e6ad8c1700de34020502446a0ed626","scale":"","thumbnail":"https:\/\/image.imjihua.com\/spider\/community\/sina_ivhuipp3775478\/48e6ad8c1700de34020502446a0ed626?imageView2\/2\/w\/300\/format\/gif"},{"original":"https:\/\/image.imjihua.com\/spider\/community\/sina_ivhuipp3775478\/1c1cb6eebd8c212434dd20c9443a74ea","scale":"","thumbnail":"https:\/\/image.imjihua.com\/spider\/community\/sina_ivhuipp3775478\/1c1cb6eebd8c212434dd20c9443a74ea?imageView2\/2\/w\/300\/format\/gif"},{"original":"https:\/\/image.imjihua.com\/spider\/community\/sina_ivhuipp3775478\/26e283748384575908623a41612d2c58","scale":"","thumbnail":"https:\/\/image.imjihua.com\/spider\/community\/sina_ivhuipp3775478\/26e283748384575908623a41612d2c58?imageView2\/2\/w\/300\/format\/gif"}]},"pc_num":0,"zan_num":20,"is_top":0,"is_zan":0,"is_del":0,"is_report":1,"user_level":1},{"user_id":3690,"nickname":"\u70ed\u706b","avatar":"https:\/\/image.2048.com\/rbimgs\/3c63212b1c05417b90c6c8d8b06562580.jpg","post_id":5022,"post_time":"2\u5c0f\u65f6\u524d","content":"MLB\u65e7\u91d1\u5c71\u5de8\u4eba1-6\u5723\u5730\u4e9a\u54e5\u6559\u58eb","media":{"media_type":"image","media_list":[{"original":"https:\/\/image.imjihua.com\/spider\/community\/sina_ivhvpwy6151722\/c6bb025912a9ac2fab9ea11079114f2b","scale":"","thumbnail":"https:\/\/image.imjihua.com\/spider\/community\/sina_ivhvpwy6151722\/c6bb025912a9ac2fab9ea11079114f2b?imageView2\/2\/w\/300\/format\/gif"},{"original":"https:\/\/image.imjihua.com\/spider\/community\/sina_ivhvpwy6151722\/2aec96dca01fbae31555671a60bf3c3a","scale":"","thumbnail":"https:\/\/image.imjihua.com\/spider\/community\/sina_ivhvpwy6151722\/2aec96dca01fbae31555671a60bf3c3a?imageView2\/2\/w\/300\/format\/gif"},{"original":"https:\/\/image.imjihua.com\/spider\/community\/sina_ivhvpwy6151722\/cd49fda86abf0f0ba83baf21a33f564d","scale":"","thumbnail":"https:\/\/image.imjihua.com\/spider\/community\/sina_ivhvpwy6151722\/cd49fda86abf0f0ba83baf21a33f564d?imageView2\/2\/w\/300\/format\/gif"},{"original":"https:\/\/image.imjihua.com\/spider\/community\/sina_ivhvpwy6151722\/42dc7eb5b968df9994bba5c324da1c37","scale":"","thumbnail":"https:\/\/image.imjihua.com\/spider\/community\/sina_ivhvpwy6151722\/42dc7eb5b968df9994bba5c324da1c37?imageView2\/2\/w\/300\/format\/gif"},{"original":"https:\/\/image.imjihua.com\/spider\/community\/sina_ivhvpwy6151722\/f03777d426bd6a8827afaf678a9d3ecb","scale":"","thumbnail":"https:\/\/image.imjihua.com\/spider\/community\/sina_ivhvpwy6151722\/f03777d426bd6a8827afaf678a9d3ecb?imageView2\/2\/w\/300\/format\/gif"}]},"pc_num":0,"zan_num":44,"is_top":0,"is_zan":0,"is_del":0,"is_report":1,"user_level":0},{"user_id":5241,"nickname":"\u5e38\u4f34\u4ed6\u5fc3","avatar":"https:\/\/image.2048.com\/rbimgs\/55f358583a4e4724b1d7a477e445187a0.jpg","post_id":5023,"post_time":"2\u5c0f\u65f6\u524d","content":"MLB\u6d1b\u6749\u77f6\u9053\u59472-5\u4e9a\u5229\u6851\u90a3","media":{"media_type":"image","media_list":[{"original":"https:\/\/image.imjihua.com\/spider\/community\/sina_ivhuipp3774836\/e7418b1a975a13fd64cbe12964d399fe","scale":"","thumbnail":"https:\/\/image.imjihua.com\/spider\/community\/sina_ivhuipp3774836\/e7418b1a975a13fd64cbe12964d399fe?imageView2\/2\/w\/300\/format\/gif"},{"original":"https:\/\/image.imjihua.com\/spider\/community\/sina_ivhuipp3774836\/92cc830c8584916ab0eed0c34910fa1f","scale":"","thumbnail":"https:\/\/image.imjihua.com\/spider\/community\/sina_ivhuipp3774836\/92cc830c8584916ab0eed0c34910fa1f?imageView2\/2\/w\/300\/format\/gif"},{"original":"https:\/\/image.imjihua.com\/spider\/community\/sina_ivhuipp3774836\/b16f73cde1dc0aa3011a5552647ffb4c","scale":"","thumbnail":"https:\/\/image.imjihua.com\/spider\/community\/sina_ivhuipp3774836\/b16f73cde1dc0aa3011a5552647ffb4c?imageView2\/2\/w\/300\/format\/gif"},{"original":"https:\/\/image.imjihua.com\/spider\/community\/sina_ivhuipp3774836\/fa82c2fd9ecd03bd58bae42224dfaefd","scale":"","thumbnail":"https:\/\/image.imjihua.com\/spider\/community\/sina_ivhuipp3774836\/fa82c2fd9ecd03bd58bae42224dfaefd?imageView2\/2\/w\/300\/format\/gif"},{"original":"https:\/\/image.imjihua.com\/spider\/community\/sina_ivhuipp3774836\/690e2549e86131ac0948863180009a61","scale":"","thumbnail":"https:\/\/image.imjihua.com\/spider\/community\/sina_ivhuipp3774836\/690e2549e86131ac0948863180009a61?imageView2\/2\/w\/300\/format\/gif"}]},"pc_num":0,"zan_num":47,"is_top":0,"is_zan":0,"is_del":0,"is_report":1,"user_level":0},{"user_id":2361,"nickname":"\u51e0\u91cc","avatar":"https:\/\/image.2048.com\/rbimgs\/25e0d970598148dda85469cd30ebbe3e0.jpg","post_id":5024,"post_time":"3\u5c0f\u65f6\u524d","content":"\u5566\u5566\u961f\u5b9d\u8d1d\u70ed\u821e\u52a9\u5a01\u6c99\u6392","media":{"media_type":"image","media_list":[{"original":"https:\/\/image.imjihua.com\/spider\/community\/sina_ivhuipp3772296\/508e4c637964762ee82058ae2ccfcc83","scale":"","thumbnail":"https:\/\/image.imjihua.com\/spider\/community\/sina_ivhuipp3772296\/508e4c637964762ee82058ae2ccfcc83?imageView2\/2\/w\/300\/format\/gif"},{"original":"https:\/\/image.imjihua.com\/spider\/community\/sina_ivhuipp3772296\/358f4c43a3df6e22462bbeea28e499b9","scale":"","thumbnail":"https:\/\/image.imjihua.com\/spider\/community\/sina_ivhuipp3772296\/358f4c43a3df6e22462bbeea28e499b9?imageView2\/2\/w\/300\/format\/gif"},{"original":"https:\/\/image.imjihua.com\/spider\/community\/sina_ivhuipp3772296\/b853b7ee2cd5c6796a2d2efc2cdfeafa","scale":"","thumbnail":"https:\/\/image.imjihua.com\/spider\/community\/sina_ivhuipp3772296\/b853b7ee2cd5c6796a2d2efc2cdfeafa?imageView2\/2\/w\/300\/format\/gif"},{"original":"https:\/\/image.imjihua.com\/spider\/community\/sina_ivhuipp3772296\/d3bff57faf7d757c807af51d51d18227","scale":"","thumbnail":"https:\/\/image.imjihua.com\/spider\/community\/sina_ivhuipp3772296\/d3bff57faf7d757c807af51d51d18227?imageView2\/2\/w\/300\/format\/gif"}]},"pc_num":0,"zan_num":39,"is_top":0,"is_zan":0,"is_del":0,"is_report":1,"user_level":0},{"user_id":3208,"nickname":"\u6708\u4e2d\u5f71","avatar":"https:\/\/image.2048.com\/rbimgs\/347326360e49414da0422fe12b7b545f0.jpg","post_id":5025,"post_time":"3\u5c0f\u65f6\u524d","content":"MLB\u8fc8\u963f\u5bc6\u9a6c\u6797\u9c7c7\uff1a6\u8d39\u57ce\u4eba","media":{"media_type":"image","media_list":[{"original":"https:\/\/image.imjihua.com\/spider\/community\/sina_ivhuipp3771841\/ee1fe5b2e32989b84e9ad05852b33f3a","scale":"","thumbnail":"https:\/\/image.imjihua.com\/spider\/community\/sina_ivhuipp3771841\/ee1fe5b2e32989b84e9ad05852b33f3a?imageView2\/2\/w\/300\/format\/gif"},{"original":"https:\/\/image.imjihua.com\/spider\/community\/sina_ivhuipp3771841\/e0cf62cf2d89e5b3950766c43c5b584d","scale":"","thumbnail":"https:\/\/image.imjihua.com\/spider\/community\/sina_ivhuipp3771841\/e0cf62cf2d89e5b3950766c43c5b584d?imageView2\/2\/w\/300\/format\/gif"},{"original":"https:\/\/image.imjihua.com\/spider\/community\/sina_ivhuipp3771841\/c9509ef0e30e3143120ac1de406808b8","scale":"","thumbnail":"https:\/\/image.imjihua.com\/spider\/community\/sina_ivhuipp3771841\/c9509ef0e30e3143120ac1de406808b8?imageView2\/2\/w\/300\/format\/gif"},{"original":"https:\/\/image.imjihua.com\/spider\/community\/sina_ivhuipp3771841\/017ef1bc5387961faf7a70896ee02a49","scale":"","thumbnail":"https:\/\/image.imjihua.com\/spider\/community\/sina_ivhuipp3771841\/017ef1bc5387961faf7a70896ee02a49?imageView2\/2\/w\/300\/format\/gif"},{"original":"https:\/\/image.imjihua.com\/spider\/community\/sina_ivhuipp3771841\/4aecb7ae9de027b242b4aae1d23c72b5","scale":"","thumbnail":"https:\/\/image.imjihua.com\/spider\/community\/sina_ivhuipp3771841\/4aecb7ae9de027b242b4aae1d23c72b5?imageView2\/2\/w\/300\/format\/gif"}]},"pc_num":0,"zan_num":18,"is_top":0,"is_zan":0,"is_del":0,"is_report":1,"user_level":1},{"user_id":730,"nickname":"\u7709\u76ee\u5982\u9526\u7ee3","avatar":"https:\/\/image.2048.com\/rbimgs\/0c36f5105f854340abc1dda47223187b0.jpg","post_id":5026,"post_time":"3\u5c0f\u65f6\u524d","content":"NFL\u4f11\u65af\u987f\u5fb7\u5dde\u4ebavs\u582a\u8428\u65af\u57ce","media":{"media_type":"image","media_list":[{"original":"https:\/\/image.imjihua.com\/spider\/community\/sina_ivhvpwy6147406\/4791cf3eac155404b32cc6b1868ea7de","scale":"","thumbnail":"https:\/\/image.imjihua.com\/spider\/community\/sina_ivhvpwy6147406\/4791cf3eac155404b32cc6b1868ea7de?imageView2\/2\/w\/300\/format\/gif"},{"original":"https:\/\/image.imjihua.com\/spider\/community\/sina_ivhvpwy6147406\/274969026811d805fcbc0d7dfeae15b8","scale":"","thumbnail":"https:\/\/image.imjihua.com\/spider\/community\/sina_ivhvpwy6147406\/274969026811d805fcbc0d7dfeae15b8?imageView2\/2\/w\/300\/format\/gif"},{"original":"https:\/\/image.imjihua.com\/spider\/community\/sina_ivhvpwy6147406\/65cb7e6e470e181bcec1a5bd9072426a","scale":"","thumbnail":"https:\/\/image.imjihua.com\/spider\/community\/sina_ivhvpwy6147406\/65cb7e6e470e181bcec1a5bd9072426a?imageView2\/2\/w\/300\/format\/gif"},{"original":"https:\/\/image.imjihua.com\/spider\/community\/sina_ivhvpwy6147406\/996b77618a1833f8ce9eaf9773d0d023","scale":"","thumbnail":"https:\/\/image.imjihua.com\/spider\/community\/sina_ivhvpwy6147406\/996b77618a1833f8ce9eaf9773d0d023?imageView2\/2\/w\/300\/format\/gif"},{"original":"https:\/\/image.imjihua.com\/spider\/community\/sina_ivhvpwy6147406\/203fe3877cd4ecb03dbbfc751789daa6","scale":"","thumbnail":"https:\/\/image.imjihua.com\/spider\/community\/sina_ivhvpwy6147406\/203fe3877cd4ecb03dbbfc751789daa6?imageView2\/2\/w\/300\/format\/gif"}]},"pc_num":0,"zan_num":42,"is_top":0,"is_zan":0,"is_del":0,"is_report":1,"user_level":1},{"user_id":3703,"nickname":"\u843d\u9b44","avatar":"https:\/\/image.2048.com\/rbimgs\/3cacfa44733f4adbba7a028bf5be8edc0.jpg","post_id":5027,"post_time":"3\u5c0f\u65f6\u524d","content":"MLB\u829d\u52a0\u54e5\u5c0f\u718avs\u8f9b\u8f9b\u90a3\u63d0\u7ea2\u4eba","media":{"media_type":"image","media_list":[{"original":"https:\/\/image.imjihua.com\/spider\/community\/sina_ivhvpwy6146947\/6b71ede7a570e5486152d0f5790d41d2","scale":"","thumbnail":"https:\/\/image.imjihua.com\/spider\/community\/sina_ivhvpwy6146947\/6b71ede7a570e5486152d0f5790d41d2?imageView2\/2\/w\/300\/format\/gif"},{"original":"https:\/\/image.imjihua.com\/spider\/community\/sina_ivhvpwy6146947\/8e264c0d35ac02eeae51d5cdab7557df","scale":"","thumbnail":"https:\/\/image.imjihua.com\/spider\/community\/sina_ivhvpwy6146947\/8e264c0d35ac02eeae51d5cdab7557df?imageView2\/2\/w\/300\/format\/gif"},{"original":"https:\/\/image.imjihua.com\/spider\/community\/sina_ivhvpwy6146947\/4422acb28af9dd90c4e8db60147f981e","scale":"","thumbnail":"https:\/\/image.imjihua.com\/spider\/community\/sina_ivhvpwy6146947\/4422acb28af9dd90c4e8db60147f981e?imageView2\/2\/w\/300\/format\/gif"},{"original":"https:\/\/image.imjihua.com\/spider\/community\/sina_ivhvpwy6146947\/e062b8297c85407913cd7c37b353667f","scale":"","thumbnail":"https:\/\/image.imjihua.com\/spider\/community\/sina_ivhvpwy6146947\/e062b8297c85407913cd7c37b353667f?imageView2\/2\/w\/300\/format\/gif"},{"original":"https:\/\/image.imjihua.com\/spider\/community\/sina_ivhvpwy6146947\/8d4556d72456d44ffa67218f766ca761","scale":"","thumbnail":"https:\/\/image.imjihua.com\/spider\/community\/sina_ivhvpwy6146947\/8d4556d72456d44ffa67218f766ca761?imageView2\/2\/w\/300\/format\/gif"}]},"pc_num":0,"zan_num":34,"is_top":0,"is_zan":0,"is_del":0,"is_report":1,"user_level":1},{"user_id":3743,"nickname":"\u90fd\u4e0d\u7231","avatar":"https:\/\/image.2048.com\/rbimgs\/3d601b256fdf42cc820b2e0e12225d300.jpg","post_id":5028,"post_time":"3\u5c0f\u65f6\u524d","content":"2020\u5e74\u745e\u58eb\u51b0\u7403\u8054\u8d5b\u6d4b\u8bd5\u8d5b","media":{"media_type":"image","media_list":[{"original":"https:\/\/image.imjihua.com\/spider\/community\/sina_ivhuipp3770269\/3a308a3f791c452db7b010b84504a1b8","scale":"","thumbnail":"https:\/\/image.imjihua.com\/spider\/community\/sina_ivhuipp3770269\/3a308a3f791c452db7b010b84504a1b8?imageView2\/2\/w\/300\/format\/gif"},{"original":"https:\/\/image.imjihua.com\/spider\/community\/sina_ivhuipp3770269\/1c7f1ce315acbcd0f544438a3a95d1c3","scale":"","thumbnail":"https:\/\/image.imjihua.com\/spider\/community\/sina_ivhuipp3770269\/1c7f1ce315acbcd0f544438a3a95d1c3?imageView2\/2\/w\/300\/format\/gif"},{"original":"https:\/\/image.imjihua.com\/spider\/community\/sina_ivhuipp3770269\/d32a686afcb6cad30bf6c49826f676cc","scale":"","thumbnail":"https:\/\/image.imjihua.com\/spider\/community\/sina_ivhuipp3770269\/d32a686afcb6cad30bf6c49826f676cc?imageView2\/2\/w\/300\/format\/gif"},{"original":"https:\/\/image.imjihua.com\/spider\/community\/sina_ivhuipp3770269\/a32d32e3530b757cd129b25dbbc916f8","scale":"","thumbnail":"https:\/\/image.imjihua.com\/spider\/community\/sina_ivhuipp3770269\/a32d32e3530b757cd129b25dbbc916f8?imageView2\/2\/w\/300\/format\/gif"},{"original":"https:\/\/image.imjihua.com\/spider\/community\/sina_ivhuipp3770269\/1b4783836c4bd80e0a5c3d417ac7a745","scale":"","thumbnail":"https:\/\/image.imjihua.com\/spider\/community\/sina_ivhuipp3770269\/1b4783836c4bd80e0a5c3d417ac7a745?imageView2\/2\/w\/300\/format\/gif"}]},"pc_num":0,"zan_num":20,"is_top":0,"is_zan":0,"is_del":0,"is_report":1,"user_level":0},{"user_id":690,"nickname":"\u8ba4\u771f\u8001\u53bb","avatar":"https:\/\/image.2048.com\/rbimgs\/0bae40bfaf2d4df58a14dd1ffe8c333c0.jpg","post_id":5020,"post_time":"3\u5c0f\u65f6\u524d","content":"\u5df4\u9ece\u5723\u65e5\u8033\u66fc\u624b\u7403\u961f\u5a92\u4f53\u89c1\u9762\u4f1a","media":{"media_type":"image","media_list":[{"original":"https:\/\/image.imjihua.com\/spider\/community\/sina_ivhuipp3769998\/6866c31ebaafa083dc2e645000a08c4c","scale":"","thumbnail":"https:\/\/image.imjihua.com\/spider\/community\/sina_ivhuipp3769998\/6866c31ebaafa083dc2e645000a08c4c?imageView2\/2\/w\/300\/format\/gif"},{"original":"https:\/\/image.imjihua.com\/spider\/community\/sina_ivhuipp3769998\/c2f7869acf60b41109459a5e60886d8c","scale":"","thumbnail":"https:\/\/image.imjihua.com\/spider\/community\/sina_ivhuipp3769998\/c2f7869acf60b41109459a5e60886d8c?imageView2\/2\/w\/300\/format\/gif"},{"original":"https:\/\/image.imjihua.com\/spider\/community\/sina_ivhuipp3769998\/94e6b66522f0d4206f0617f99c070dc3","scale":"","thumbnail":"https:\/\/image.imjihua.com\/spider\/community\/sina_ivhuipp3769998\/94e6b66522f0d4206f0617f99c070dc3?imageView2\/2\/w\/300\/format\/gif"},{"original":"https:\/\/image.imjihua.com\/spider\/community\/sina_ivhuipp3769998\/9e1950b093a2d1c0f40bb54a6d77cded","scale":"","thumbnail":"https:\/\/image.imjihua.com\/spider\/community\/sina_ivhuipp3769998\/9e1950b093a2d1c0f40bb54a6d77cded?imageView2\/2\/w\/300\/format\/gif"},{"original":"https:\/\/image.imjihua.com\/spider\/community\/sina_ivhuipp3769998\/2ea06786b16bf2fcc85d946acce6cdaf","scale":"","thumbnail":"https:\/\/image.imjihua.com\/spider\/community\/sina_ivhuipp3769998\/2ea06786b16bf2fcc85d946acce6cdaf?imageView2\/2\/w\/300\/format\/gif"}]},"pc_num":0,"zan_num":11,"is_top":0,"is_zan":0,"is_del":0,"is_report":1,"user_level":0}],"has_next_page":1}}